{
  "applications": "*",
  "changelogDate": "20230417111543",
  "dto": "mapstruct",
  "embedded": false,
  "entityTableName": "specialization",
  "fields": [
    {
      "fieldName": "name",
      "fieldType": "String",
      "javadoc": "name"
    },
    {
      "fieldName": "centre",
      "fieldType": "Centre",
      "fieldTypeJavadoc": "Centre: RSEM (Respublika Sud Expertiza markazi)",
      "fieldValues": "RSEM",
      "javadoc": "centre"
    }
  ],
  "fluentMethods": true,
  "javadoc": "Specialization",
  "jpaMetamodelFiltering": true,
  "name": "Specialization",
  "pagination": "pagination",
  "readOnly": false,
  "relationships": [],
  "service": "serviceClass"
}
